Weather report: Hamburg

                Overcast
       .--.     57 °F          
    .-(    ).   ↓ 3 mph        
   (___.__)__)  6 mi           
                0.0 in         
                                                       ┌─────────────┐                                                       
┌──────────────────────────────┬───────────────────────┤  Sun 19 Jun ├───────────────────────┬──────────────────────────────┐
│            Morning           │             Noon      └──────┬──────┘     Evening           │             Night            │
├──────────────────────────────┼──────────────────────────────┼──────────────────────────────┼──────────────────────────────┤
│  _`/"".-.     Light rain sho…│  _`/"".-.     Patchy rain po…│  _`/"".-.     Patchy rain po…│               Overcast       │
│   ,\_(   ).   60 °F          │   ,\_(   ).   60 °F          │   ,\_(   ).   60 °F          │      .--.     57 °F          │
│    /(___(__)  ↙ 9-11 mph     │    /(___(__)  ↓ 8-10 mph     │    /(___(__)  ↓ 5-6 mph      │   .-(    ).   ↘ 3-4 mph      │
│      ‘ ‘ ‘ ‘  6 mi           │      ‘ ‘ ‘ ‘  6 mi           │      ‘ ‘ ‘ ‘  6 mi           │  (___.__)__)  6 mi           │
│     ‘ ‘ ‘ ‘   0.0 in | 64%   │     ‘ ‘ ‘ ‘   0.0 in | 86%   │     ‘ ‘ ‘ ‘   0.0 in | 74%   │               0.0 in | 0%    │
└──────────────────────────────┴──────────────────────────────┴──────────────────────────────┴──────────────────────────────┘
                                                       ┌─────────────┐                                                       
┌──────────────────────────────┬───────────────────────┤  Mon 20 Jun ├───────────────────────┬──────────────────────────────┐
│            Morning           │             Noon      └──────┬──────┘     Evening           │             Night            │
├──────────────────────────────┼──────────────────────────────┼──────────────────────────────┼──────────────────────────────┤
│  _`/"".-.     Patchy rain po…│  _`/"".-.     Light rain sho…│  _`/"".-.     Light rain sho…│     \   /     Sunny          │
│   ,\_(   ).   59 °F          │   ,\_(   ).   64 °F          │   ,\_(   ).   59 °F          │      .-.      +53(51) °F     │
│    /(___(__)  → 5-6 mph      │    /(___(__)  → 11-16 mph    │    /(___(__)  → 12-18 mph    │   ― (   ) ―   → 9-16 mph     │
│      ‘ ‘ ‘ ‘  6 mi           │      ‘ ‘ ‘ ‘  6 mi           │      ‘ ‘ ‘ ‘  6 mi           │      `-’      6 mi           │
│     ‘ ‘ ‘ ‘   0.0 in | 77%   │     ‘ ‘ ‘ ‘   0.0 in | 90%   │     ‘ ‘ ‘ ‘   0.0 in | 88%   │     /   \     0.0 in | 0%    │
└──────────────────────────────┴──────────────────────────────┴──────────────────────────────┴──────────────────────────────┘
                                                       ┌─────────────┐                                                       
┌──────────────────────────────┬───────────────────────┤  Tue 21 Jun ├───────────────────────┬──────────────────────────────┐
│            Morning           │             Noon      └──────┬──────┘     Evening           │             Night            │
├──────────────────────────────┼──────────────────────────────┼──────────────────────────────┼──────────────────────────────┤
│     \   /     Sunny          │    \  /       Partly cloudy  │     \   /     Sunny          │     \   /     Sunny          │
│      .-.      64 °F          │  _ /"".-.     69 °F          │      .-.      68 °F          │      .-.      55 °F          │
│   ― (   ) ―   → 9-11 mph     │    \_(   ).   → 10-11 mph    │   ― (   ) ―   ↘ 7-8 mph      │   ― (   ) ―   ↘ 4-9 mph      │
│      `-’      6 mi           │    /(___(__)  6 mi           │      `-’      6 mi           │      `-’      6 mi           │
│     /   \     0.0 in | 0%    │               0.0 in | 0%    │     /   \     0.0 in | 0%    │     /   \     0.0 in | 0%    │
└──────────────────────────────┴──────────────────────────────┴──────────────────────────────┴──────────────────────────────┘
Location: Hamburg, Deutschland [53.550341,10.000654]

Follow @igor_chubin for wttr.in updates
